Primary,RelatedTo,RelationType
2878,2918,parentChild
2355,2878,sibling
2918,659,parentChild
862,2425,sibling
705,1614,sibling
1638,2706,sibling
659,2217,parentChild
2706,2878,sibling
2355,2706,sibling
645,2355,parentChild
705,2425,sibling
659,2062,parentChild
2878,1614,parentChild
627,2217,sibling
645,2878,parentChild
2878,2654,parentChild
645,1638,parentChild
645,2706,parentChild
659,627,parentChild
659,1652,parentChild
862,2654,sibling
2878,862,parentChild
2878,705,parentChild
2425,2654,sibling
705,2654,sibling
627,2062,sibling
1614,2425,sibling
1652,2062,sibling
862,2918,sibling
1652,2217,sibling
862,1614,sibling
2425,2918,sibling
2654,2918,sibling
705,862,sibling
627,1652,sibling
1638,2355,sibling
1614,2654,sibling
2878,2425,parentChild
705,2918,sibling
1638,2878,sibling
2062,2217,sibling
1614,2918,sibling